{
	"FileVersion": "1.0.0",
	"Missions": {
		"WarMachines": [
			"CurrentToon_Target_Clockwork_Commander_Widgetsworth00",
			"CurrentToon_Hail",
			"CurrentToon_Say_Help",
			"CurrentToon_Say_RescueMission",
			"CurrentToon_Say_Group",
			"CurrentToon_AcceptSelectedTask",
			"Rhino_Select_ClockworkJuggernaut1",
			"Rhino_Select_ClockworkJuggernaut2",
			"Rhino_Select_ClockworkJuggernaut3",
			"Guepard_Select_ClockworkInfantry1",
			"Guepard_Select_ClockworkInfantry2",
			"Guepard_Select_ClockworkInfantry3",
			"Tatou_Select_ClockworkInfantry1",
			"Tatou_Select_ClockworkInfantry2",
			"Tatou_Select_ClockworkInfantry3",
			"Obscurite_Select_ClockworkBombadier1",
			"Obscurite_Select_ClockworkBombadier2",
			"Obscurite_Select_ClockworkBombadier3",
			"Trouvere_Select_ClockworkBombadier1",
			"Trouvere_Select_ClockworkBombadier2",
			"Trouvere_Select_ClockworkBombadier3",
			"Bombardier_Select_ClockworkBombadier1",
			"Bombardier_Select_ClockworkBombadier2",
			"Bombardier_Select_ClockworkBombadier3",
			"CurrentGroup_Target_Clockwork_Commander_Cogswain00",
			"CurrentGroup_Hail"
		],
		"WarMachines2": [
			"Rhino_WarMachinesEquipment1",
			"Rhino_WarMachinesEquipment2",
			"Rhino_WarMachinesEquipment3",
			"Rhino_WarMachinesEquipment4",
			"Guepard_WarMachinesEquipment1",
			"Guepard_WarMachinesEquipment2",
			"Guepard_WarMachinesEquipment3",
			"Guepard_WarMachinesEquipment4",
			"Tatou_WarMachinesEquipment1",
			"Tatou_WarMachinesEquipment2",
			"Tatou_WarMachinesEquipment3",
			"Tatou_WarMachinesEquipment4",
			"Obscurite_WarMachinesEquipment1",
			"Obscurite_WarMachinesEquipment2",
			"Obscurite_WarMachinesEquipment3",
			"Obscurite_WarMachinesEquipment4",
			"Trouvere_WarMachinesEquipment1",
			"Trouvere_WarMachinesEquipment2",
			"Trouvere_WarMachinesEquipment3",
			"Trouvere_WarMachinesEquipment4",
			"Bombardier_WarMachinesEquipment1",
			"Bombardier_WarMachinesEquipment2",
			"Bombardier_WarMachinesEquipment3",
			"Bombardier_WarMachinesEquipment4"
		]
	}
}
