{
	"FileVersion": "1.0.0",
	"Actions": {
		"CurrentGroup_Hail": {
			"Id": "CurrentGroup_Hail",
			"ActionType": "DoCommand",
			"ActionValue": "/hail",
			"DelayAfterExecuting": 1000,
			"IdentifierType": "CurrentGroup",
			"IdentifierValue": null
		},
		"CurrentGroup_Target_Clockwork_Commander_Cogswain00": {
			"Id": "CurrentGroup_Target_Clockwork_Commander_Cogswain00",
			"ActionType": "DoCommand",
			"ActionValue": "/target ${Spawn[npc Clockwork_Commander_Cogswain00]}",
			"DelayAfterExecuting": 200,
			"DelayBeforeExecuting": 200,
			"IdentifierType": "CurrentGroup",
			"IdentifierValue": null
		},
		"CurrentToon_AcceptSelectedTask": {
			"Id": "CurrentToon_AcceptSelectedTask",
			"ActionType": "DoCommand",
			"ActionValue": "/notify taskselectwnd TSEL_AcceptButton leftmouseup",
			"DelayAfterExecuting": 1000,
			"IdentifierType": "CurrentToon",
			"IdentifierValue": null
		},
		"CurrentToon_Hail": {
			"Id": "CurrentToon_Hail",
			"ActionType": "DoCommand",
			"ActionValue": "/hail",
			"DelayAfterExecuting": 1000,
			"IdentifierType": "CurrentToon",
			"IdentifierValue": null
		},
		"CurrentToon_Say_Help": {
			"Id": "CurrentToon_Say_Help",
			"ActionType": "DoCommand",
			"ActionValue": "/say help",
			"DelayAfterExecuting": 1000,
			"IdentifierType": "CurrentToon",
			"IdentifierValue": null
		},
		"CurrentToon_Say_RescueMission": {
			"Id": "CurrentToon_Say_RescueMission",
			"ActionType": "DoCommand",
			"ActionValue": "/say rescue mission",
			"DelayAfterExecuting": 1000,
			"IdentifierType": "CurrentToon",
			"IdentifierValue": null
		},
		"CurrentToon_Say_Group": {
			"Id": "CurrentToon_Say_Group",
			"ActionType": "DoCommand",
			"ActionValue": "/say group",
			"DelayAfterExecuting": 1000,
			"IdentifierType": "CurrentToon",
			"IdentifierValue": null
		},
		"CurrentToon_Target_Clockwork_Commander_Widgetsworth00": {
			"Id": "CurrentToon_Target_Clockwork_Commander_Widgetsworth00",
			"ActionType": "DoCommand",
			"ActionValue": "/target ${Spawn[npc Clockwork_Commander_Widgetsworth00]}",
			"DelayAfterExecuting": 200,
			"IdentifierType": "CurrentToon",
			"IdentifierValue": null
		},
		"Rhino_Select_ClockworkJuggernaut1": {
			"Id": "Rhino_Select_ClockworkJuggernaut1",
			"ActionType": "DoCommand",
			"ActionValue": "/notify tasktemplateselectwnd TaskTemplateSelectListOptional listselect 3",
			"DelayAfterExecuting": 400,
			"IdentifierType": "ToonName",
			"IdentifierValue": "Rhino"
		},
		"Rhino_Select_ClockworkJuggernaut2": {
			"Id": "Rhino_Select_ClockworkJuggernaut2",
			"ActionType": "DoCommand",
			"ActionValue": "/notify tasktemplateselectwnd TaskTemplateSelectListOptional leftmouse 3",
			"DelayAfterExecuting": 400,
			"IdentifierType": "ToonName",
			"IdentifierValue": "Rhino"
		},
		"Rhino_Select_ClockworkJuggernaut3": {
			"Id": "Rhino_Select_ClockworkJuggernaut3",
			"ActionType": "DoCommand",
			"ActionValue": "/notify tasktemplateselectwnd TaskTemplateSelectAcceptButton leftmouseup",
			"DelayAfterExecuting": 400,
			"IdentifierType": "ToonName",
			"IdentifierValue": "Rhino"
		},
		"Guepard_Select_ClockworkInfantry1": {
			"Id": "Guepard_Select_ClockworkInfantry1",
			"ActionType": "DoCommand",
			"ActionValue": "/notify tasktemplateselectwnd TaskTemplateSelectListOptional listselect 1",
			"DelayAfterExecuting": 400,
			"IdentifierType": "ToonName",
			"IdentifierValue": "Guepard"
		},
		"Guepard_Select_ClockworkInfantry2": {
			"Id": "Guepard_Select_ClockworkInfantry2",
			"ActionType": "DoCommand",
			"ActionValue": "/notify tasktemplateselectwnd TaskTemplateSelectListOptional leftmouse 1",
			"DelayAfterExecuting": 400,
			"IdentifierType": "ToonName",
			"IdentifierValue": "Guepard"
		},
		"Guepard_Select_ClockworkInfantry3": {
			"Id": "Guepard_Select_ClockworkInfantry3",
			"ActionType": "DoCommand",
			"ActionValue": "/notify tasktemplateselectwnd TaskTemplateSelectAcceptButton leftmouseup",
			"DelayAfterExecuting": 400,
			"IdentifierType": "ToonName",
			"IdentifierValue": "Guepard"
		},
		"Tatou_Select_ClockworkInfantry1": {
			"Id": "Tatou_Select_ClockworkInfantry1",
			"ActionType": "DoCommand",
			"ActionValue": "/notify tasktemplateselectwnd TaskTemplateSelectListOptional listselect 1",
			"DelayAfterExecuting": 400,
			"IdentifierType": "ToonName",
			"IdentifierValue": "Tatou"
		},
		"Tatou_Select_ClockworkInfantry2": {
			"Id": "Tatou_Select_ClockworkInfantry2",
			"ActionType": "DoCommand",
			"ActionValue": "/notify tasktemplateselectwnd TaskTemplateSelectListOptional leftmouse 1",
			"DelayAfterExecuting": 400,
			"IdentifierType": "ToonName",
			"IdentifierValue": "Tatou"
		},
		"Tatou_Select_ClockworkInfantry3": {
			"Id": "Tatou_Select_ClockworkInfantry3",
			"ActionType": "DoCommand",
			"ActionValue": "/notify tasktemplateselectwnd TaskTemplateSelectAcceptButton leftmouseup",
			"DelayAfterExecuting": 400,
			"IdentifierType": "ToonName",
			"IdentifierValue": "Tatou"
		},
		"Obscurite_Select_ClockworkBombadier1": {
			"Id": "Obscurite_Select_ClockworkBombadier1",
			"ActionType": "DoCommand",
			"ActionValue": "/notify tasktemplateselectwnd TaskTemplateSelectListOptional listselect 2",
			"DelayAfterExecuting": 400,
			"IdentifierType": "ToonName",
			"IdentifierValue": "Obscurite"
		},
		"Obscurite_Select_ClockworkBombadier2": {
			"Id": "Obscurite_Select_ClockworkBombadier2",
			"ActionType": "DoCommand",
			"ActionValue": "/notify tasktemplateselectwnd TaskTemplateSelectListOptional leftmouse 2",
			"DelayAfterExecuting": 400,
			"IdentifierType": "ToonName",
			"IdentifierValue": "Obscurite"
		},
		"Obscurite_Select_ClockworkBombadier3": {
			"Id": "Obscurite_Select_ClockworkBombadier3",
			"ActionType": "DoCommand",
			"ActionValue": "/notify tasktemplateselectwnd TaskTemplateSelectAcceptButton leftmouseup",
			"DelayAfterExecuting": 400,
			"IdentifierType": "ToonName",
			"IdentifierValue": "Obscurite"
		},
		"Trouvere_Select_ClockworkBombadier1": {
			"Id": "Trouvere_Select_ClockworkBombadier1",
			"ActionType": "DoCommand",
			"ActionValue": "/notify tasktemplateselectwnd TaskTemplateSelectListOptional listselect 2",
			"DelayAfterExecuting": 400,
			"IdentifierType": "ToonName",
			"IdentifierValue": "Trouvere"
		},
		"Trouvere_Select_ClockworkBombadier2": {
			"Id": "Trouvere_Select_ClockworkBombadier2",
			"ActionType": "DoCommand",
			"ActionValue": "/notify tasktemplateselectwnd TaskTemplateSelectListOptional leftmouse 2",
			"DelayAfterExecuting": 400,
			"IdentifierType": "ToonName",
			"IdentifierValue": "Trouvere"
		},
		"Trouvere_Select_ClockworkBombadier3": {
			"Id": "Trouvere_Select_ClockworkBombadier3",
			"ActionType": "DoCommand",
			"ActionValue": "/notify tasktemplateselectwnd TaskTemplateSelectAcceptButton leftmouseup",
			"DelayAfterExecuting": 400,
			"IdentifierType": "ToonName",
			"IdentifierValue": "Trouvere"
		},
		"Bombardier_Select_ClockworkBombadier1": {
			"Id": "Bombardier_Select_ClockworkBombadier1",
			"ActionType": "DoCommand",
			"ActionValue": "/notify tasktemplateselectwnd TaskTemplateSelectListOptional listselect 2",
			"DelayAfterExecuting": 400,
			"IdentifierType": "ToonName",
			"IdentifierValue": "Bombardier"
		},
		"Bombardier_Select_ClockworkBombadier2": {
			"Id": "Bombardier_Select_ClockworkBombadier1",
			"ActionType": "DoCommand",
			"ActionValue": "/notify tasktemplateselectwnd TaskTemplateSelectListOptional leftmouse 2",
			"DelayAfterExecuting": 400,
			"IdentifierType": "ToonName",
			"IdentifierValue": "Bombardier"
		},
		"Bombardier_Select_ClockworkBombadier3": {
			"Id": "Bombardier_Select_ClockworkBombadier3",
			"ActionType": "DoCommand",
			"ActionValue": "/notify tasktemplateselectwnd TaskTemplateSelectAcceptButton leftmouseup",
			"DelayAfterExecuting": 400,
			"IdentifierType": "ToonName",
			"IdentifierValue": "Bombardier"
		},
		"Rhino_WarMachinesEquipment1": {
			"Id": "Rhino_WarMachinesEquipment1",
			"ActionType": "DoCommand",
			"ActionValue": "/itemnotify \"Diamond Tipped Drill Bit\" leftmouseup",
			"DelayAfterExecuting": 400,
			"IdentifierType": "ToonName",
			"IdentifierValue": "Rhino"
		},
		"Rhino_WarMachinesEquipment2": {
			"Id": "Rhino_WarMachinesEquipment2",
			"ActionType": "DoCommand",
			"ActionValue": "/itemnotify mainhand leftmouseup",
			"DelayAfterExecuting": 400,
			"IdentifierType": "ToonName",
			"IdentifierValue": "Rhino"
		},
		"Rhino_WarMachinesEquipment3": {
			"Id": "Rhino_WarMachinesEquipment3",
			"ActionType": "DoCommand",
			"ActionValue": "/itemnotify \"Reinforced Armor Plating\" leftmouseup",
			"DelayAfterExecuting": 400,
			"IdentifierType": "ToonName",
			"IdentifierValue": "Rhino"
		},
		"Rhino_WarMachinesEquipment4": {
			"Id": "Rhino_WarMachinesEquipment4",
			"ActionType": "DoCommand",
			"ActionValue": "/itemnotify chest leftmouseup",
			"DelayAfterExecuting": 400,
			"IdentifierType": "ToonName",
			"IdentifierValue": "Rhino"
		},
		"Guepard_WarMachinesEquipment1": {
			"Id": "Guepard_WarMachinesEquipment1",
			"ActionType": "DoCommand",
			"ActionValue": "/itemnotify \"Diamond Tipped Drill Bit\" leftmouseup",
			"DelayAfterExecuting": 400,
			"IdentifierType": "ToonName",
			"IdentifierValue": "Guepard"
		},
		"Guepard_WarMachinesEquipment2": {
			"Id": "Guepard_WarMachinesEquipment2",
			"ActionType": "DoCommand",
			"ActionValue": "/itemnotify mainhand leftmouseup",
			"DelayAfterExecuting": 400,
			"IdentifierType": "ToonName",
			"IdentifierValue": "Guepard"
		},
		"Guepard_WarMachinesEquipment3": {
			"Id": "Guepard_WarMachinesEquipment3",
			"ActionType": "DoCommand",
			"ActionValue": "/itemnotify \"Clockwork Infantry Bayonet\" leftmouseup",
			"DelayAfterExecuting": 400,
			"IdentifierType": "ToonName",
			"IdentifierValue": "Guepard"
		},
		"Guepard_WarMachinesEquipment4": {
			"Id": "Guepard_WarMachinesEquipment4",
			"ActionType": "DoCommand",
			"ActionValue": "/itemnotify offhand leftmouseup",
			"DelayAfterExecuting": 400,
			"IdentifierType": "ToonName",
			"IdentifierValue": "Guepard"
		},
		"Tatou_WarMachinesEquipment1": {
			"Id": "Tatou_WarMachinesEquipment1",
			"ActionType": "DoCommand",
			"ActionValue": "/itemnotify \"Diamond Tipped Drill Bit\" leftmouseup",
			"DelayAfterExecuting": 400,
			"IdentifierType": "ToonName",
			"IdentifierValue": "Tatou"
		},
		"Tatou_WarMachinesEquipment2": {
			"Id": "Tatou_WarMachinesEquipment2",
			"ActionType": "DoCommand",
			"ActionValue": "/itemnotify mainhand leftmouseup",
			"DelayAfterExecuting": 400,
			"IdentifierType": "ToonName",
			"IdentifierValue": "Tatou"
		},
		"Tatou_WarMachinesEquipment3": {
			"Id": "Tatou_WarMachinesEquipment3",
			"ActionType": "DoCommand",
			"ActionValue": "/itemnotify \"Clockwork Infantry Bayonet\" leftmouseup",
			"DelayAfterExecuting": 400,
			"IdentifierType": "ToonName",
			"IdentifierValue": "Tatou"
		},
		"Tatou_WarMachinesEquipment4": {
			"Id": "Tatou_WarMachinesEquipment14",
			"ActionType": "DoCommand",
			"ActionValue": "/itemnotify offhand leftmouseup",
			"DelayAfterExecuting": 400,
			"IdentifierType": "ToonName",
			"IdentifierValue": "Tatou"
		},
		"Obscurite_WarMachinesEquipment1": {
			"Id": "Obscurite_WarMachinesEquipment1",
			"ActionType": "DoCommand",
			"ActionValue": "/itemnotify \"Diamond Tipped Drill Bit\" leftmouseup",
			"DelayAfterExecuting": 400,
			"IdentifierType": "ToonName",
			"IdentifierValue": "Obscurite"
		},
		"Obscurite_WarMachinesEquipment2": {
			"Id": "Obscurite_WarMachinesEquipment2",
			"ActionType": "DoCommand",
			"ActionValue": "/itemnotify mainhand leftmouseup",
			"DelayAfterExecuting": 400,
			"IdentifierType": "ToonName",
			"IdentifierValue": "Obscurite"
		},
		"Obscurite_WarMachinesEquipment3": {
			"Id": "Obscurite_WarMachinesEquipment3",
			"ActionType": "DoCommand",
			"ActionValue": "/itemnotify \"Clockwork Bombadier's Charged Maul\" leftmouseup",
			"DelayAfterExecuting": 400,
			"IdentifierType": "ToonName",
			"IdentifierValue": "Obscurite"
		},
		"Obscurite_WarMachinesEquipment4": {
			"Id": "Obscurite_WarMachinesEquipment4",
			"ActionType": "DoCommand",
			"ActionValue": "/itemnotify offhand leftmouseup",
			"DelayAfterExecuting": 400,
			"IdentifierType": "ToonName",
			"IdentifierValue": "Obscurite"
		},
		"Trouvere_WarMachinesEquipment1": {
			"Id": "Trouvere_WarMachinesEquipment1",
			"ActionType": "DoCommand",
			"ActionValue": "/itemnotify \"Diamond Tipped Drill Bit\" leftmouseup",
			"DelayAfterExecuting": 400,
			"IdentifierType": "ToonName",
			"IdentifierValue": "Trouvere"
		},
		"Trouvere_WarMachinesEquipment2": {
			"Id": "Trouvere_WarMachinesEquipment2",
			"ActionType": "DoCommand",
			"ActionValue": "/itemnotify mainhand leftmouseup",
			"DelayAfterExecuting": 400,
			"IdentifierType": "ToonName",
			"IdentifierValue": "Trouvere"
		},
		"Trouvere_WarMachinesEquipment3": {
			"Id": "Trouvere_WarMachinesEquipment3",
			"ActionType": "DoCommand",
			"ActionValue": "/itemnotify \"Clockwork Bombadier's Charged Maul\" leftmouseup",
			"DelayAfterExecuting": 400,
			"IdentifierType": "ToonName",
			"IdentifierValue": "Trouvere"
		},
		"Trouvere_WarMachinesEquipment4": {
			"Id": "Trouvere_WarMachinesEquipment4",
			"ActionType": "DoCommand",
			"ActionValue": "/itemnotify offhand leftmouseup",
			"DelayAfterExecuting": 400,
			"IdentifierType": "ToonName",
			"IdentifierValue": "Trouvere"
		},
		"Bombardier_WarMachinesEquipment1": {
			"Id": "Bombardier_WarMachinesEquipment1",
			"ActionType": "DoCommand",
			"ActionValue": "/itemnotify \"Diamond Tipped Drill Bit\" leftmouseup",
			"DelayAfterExecuting": 400,
			"IdentifierType": "ToonName",
			"IdentifierValue": "Bombardier"
		},
		"Bombardier_WarMachinesEquipment2": {
			"Id": "Bombardier_WarMachinesEquipment2",
			"ActionType": "DoCommand",
			"ActionValue": "/itemnotify mainhand leftmouseup",
			"DelayAfterExecuting": 400,
			"IdentifierType": "ToonName",
			"IdentifierValue": "Bombardier"
		},
		"Bombardier_WarMachinesEquipment3": {
			"Id": "Bombardier_WarMachinesEquipment3",
			"ActionType": "DoCommand",
			"ActionValue": "/itemnotify \"Clockwork Bombadier's Charged Maul\" leftmouseup",
			"DelayAfterExecuting": 400,
			"IdentifierType": "ToonName",
			"IdentifierValue": "Bombardier"
		},
		"Bombardier_WarMachinesEquipment4": {
			"Id": "Bombardier_WarMachinesEquipment4",
			"ActionType": "DoCommand",
			"ActionValue": "/itemnotify offhand leftmouseup",
			"DelayAfterExecuting": 400,
			"IdentifierType": "ToonName",
			"IdentifierValue": "Bombardier"
		}
	}
}
